{
  "images" : [
    {
      "idiom" : "universal",
      "filename" : "BobHeadTipsy.png",
      "scale" : "1x"
    },
    {
      "idiom" : "universal",
      "filename" : "BobHeadTipsy@2x.png",
      "scale" : "2x"
    },
    {
      "idiom" : "universal",
      "filename" : "BobHeadTipsy@3x.png",
      "scale" : "3x"
    }
  ],
  "info" : {
    "version" : 1,
    "author" : "xcode"
  }
}